{
    "logradouro": {
        "id": 1,
        "cep": "06380149",
        "logradouro": "Rua Odessa",
        "bairro": "Vila mêrces",
        "cidade": "Carapicuíba",
        "uf": "SP"
    },
    "delivery_options": [
        {
            "transportadora": {
                "id": 2,
                "nome_fantasia": "Testes LTDA"
            },
            "transportadora_config": {
                "id": 14,
                "descricao": "Contrato 32",
                "tipo_transporte_id": 1,
                "props": {
                    "km": "43.5",
                    "teste": "teste"
                }
            },
            "brick": {
                "id": 3,
                "name": "Regiao Osasco"
            },
            "cds": [
                {
                    "id": 1,
                    "description": "Centro de distribuição araraquara"
                }
            ]
        },
        {
            "transportadora": {
                "id": 2,
                "nome_fantasia": "Testes LTDA"
            },
            "transportadora_config": {
                "id": 14,
                "descricao": "Contrato 32",
                "tipo_transporte_id": 1,
                "props": {
                    "km": "43.5",
                    "teste": "teste"
                }
            },
            "brick": {
                "id": 4,
                "name": "Regiao Barueri"
            },
            "cds": [
                {
                    "id": 2,
                    "description": "Centro de distribuição araraquara"
                },
                {
                    "id": 2,
                    "description": "Centro de distribuição araraquara"
                }
            ]
        }
    ]
}